<svg width="227" height="227" viewBox="0 0 227 227" fill="none" xmlns="http://www.w3.org/2000/svg">
<g clip-path="url(#clip0)">
<path d="M29.2879 123.174C38.4741 123.174 47.6634 123.186 56.8496 123.155C57.886 123.152 58.3521 123.287 58.6495 124.519C64.2268 147.673 78.5366 162.528 101.723 167.961C131.569 174.958 161.964 155.139 168.179 125.172C168.51 123.581 169.05 123.116 170.711 123.125C188.882 123.198 207.052 123.192 225.222 123.137C226.7 123.134 227.12 123.437 226.954 124.957C225.271 140.385 220.776 154.924 213.202 168.476C204.89 183.349 193.8 195.777 179.944 205.697C165.634 215.943 149.819 222.694 132.409 225.412C99.0645 230.623 68.8782 223.022 42.3927 202.087C21.0277 185.2 7.62859 163.144 1.87341 136.49C1.04555 132.653 0.545762 128.764 0.0459776 124.875C-0.110397 123.661 0.0582422 123.116 1.57292 123.131C10.8113 123.22 20.0496 123.174 29.2879 123.174Z" fill="#C0C0C0"/>
<path d="M197.705 103.876C188.519 103.876 179.33 103.863 170.144 103.894C169.092 103.897 168.626 103.741 168.362 102.506C163.579 79.9034 146.298 63.0015 123.645 58.6496C94.4371 53.0412 65.2748 72.2845 58.8512 101.402C58.3055 103.876 58.3055 103.876 55.8464 103.876C37.7775 103.876 19.7086 103.851 1.63976 103.915C0.0852209 103.922 -0.0926164 103.367 0.0545593 102.092C3.4304 72.5083 16.2286 47.7822 38.5533 28.0945C53.8687 14.5975 71.6984 6.00713 91.7297 2.0751C102.915 -0.119227 114.195 -0.539092 125.54 0.659209C146.951 2.92096 166.247 10.5827 183.196 23.7916C205.711 41.3371 219.837 64.1845 225.457 92.2205C226.119 95.5212 226.512 98.8586 226.956 102.19C227.128 103.471 226.874 103.925 225.423 103.915C216.185 103.839 206.944 103.876 197.705 103.876Z" fill="#C0C0C0"/>
<path d="M113.472 77.0499C133.301 77.0897 149.212 92.6308 150.079 111.886C150.993 132.209 134.954 149.662 113.837 150.008C93.9655 150.333 77.1139 133.94 76.8808 114.087C76.6417 93.7341 92.8525 77.3226 113.472 77.0499Z" fill="#C0C0C0"/>
</g>
<defs>
<clipPath id="clip0">
<rect width="227" height="227" fill="white"/>
</clipPath>
</defs>
</svg>
